{
  "type": "service_account",
  "project_id": "tutor-iren",
  "private_key_id": "0c3c823487cd5784e1b6b53025891ea8586d4d15",
  "private_key": "-----BEGIN PRIVATE KEY-----\nMIIEvQIBADANBgkqhkiG9w0BAQEFAASCBKcwggSjAgEAAoIBAQCcURwB3RsrLPSJ\nq6b4Y74jOCJ56GvLgztQfORCDxR6yHrFf5a4zeO12WUzaLwi4DUUI77FfB/rROGW\ny+IUtm3/ikBVJ2g5ADlb+Rbv9LLzWNsapTeHbZ2PPoPfKVoyuV61eJccmg1BPrwV\nI+w+57K2n9jS8bqVnWP0vHFeq1HHtcjZIJhw3ioFxPf6JrswcE9YFi3JpJ5uED0h\nMMVoD1kzDxbQNuSmzHY6YTa3iToeyEDpxUBUxVoeH/VujUG9FyHGa6hkA2yp9QrO\nznBcw4/2EolAJjJktlK9p2biJYChJxpzFbeG6PC3glYW1fMrR96GenHksLGwvzlV\nS0ybacQFAgMBAAECggEADFjjy3SO8X7K5MJS8rUo5FifcIheq2P29XPysRJxMwRO\n86FmYxFFoVbwsCTfvNQqR9L4U1prSFwtLYohQN2VcWVBkPhcj9QSs88dyV/HcC1e\nm+DdCAItOzlcP+5g74zGNwi1dvmRfnaEHhoI+SxivhuA4aNdHPWiWvHfn/Nhsafs\nq9QtW8YW7kgrJIkl5mM1AE48mWTw2aGo9DSvDh1erIe+1EFNrAZGS9NghyYIbiI6\nJS2l6Xzehaj0iHQTSpD/e1Bk69TSXcaJXtM/K7nqKEG0FrmVLj4tJpWDY7XR2QVv\ne5SVcfJyHx4GKCTJsRJkYYWCa7ZJIPo9NNivUCMEaQKBgQDI1nrh4N92oKLkq80e\nA8U+Vb5/lU88KnOF+Q+sbDX3tQ9hC2s39kVpnFeZgDM/BU5ynPMQ0k0msrCaiy4d\nWqXz4RE1zfTwIM0E4NAbUBeF4HazJ7dh/qatQw67MJo1FiaZorNKtCx4CaHRDUiV\nizXBRQJygAkmCa9GhIcTHtoCowKBgQDHQDkwL32YLX5y0FSMWb9Oa6YAciwP8lHZ\nHvLyAjDn8UTPhF5jRONgx+QDOj4Im7wPA3n5Wi0qB8wV8oo+mH79nVs6Kn5Fz8NY\nxyi610aAmPZAbjM2NsAOvhU6DoVy1S72uZEoFzeSe22YN3aomjsv4x5TiMDB/PGC\ncDURUsYxNwKBgFRm/qFqtb7O52YeZUdV4lC+DB7mCrSISqBk+RdHKq79IodwGxEb\nqDQoBhB2dhLoEf3Mw8Gv/8hhlCJ+l1SywcdqMKdh9KvtvPtt10eDMz+KA5hq+oBu\nWnG6GrjERipFMteiLqMYcQ/JTH3kjTp7lI2yiMLB2BZqP4TtMS7x6kDtAoGAKFze\nOOCl9Jnir6d8OSJFGsG70wNN4b0Yz37xgAzpk1LQuaj65ekiloxnqC+4OU4y/meZ\n4eVemNETiq6jSqLhtsaVoGbTRZkc3XMa0R6i7ZIO8GZigWz94v6mligy6Fw/M0PM\nH+70Fvxh6x/xLZ5wtvavQgTF54Yx9lZ8qZG3DGkCgYEAsHaeEoXbPHkCKgIf8Sdr\n6M33+AwE5ZYVa3M+OvvSe92t4cY0meogmZR+SvocZvNk0ORlXdmVfs0fedna7Rgq\n2YjZKmI/vkoQFBo+s8tf1NfKVJ5On8r19axmyPMQwDjYzsJim/4LcTJDoR0SyeAN\nXn9IomrwiW6PqIq/Omm/zFY=\n-----END PRIVATE KEY-----\n",
  "client_email": "firebase-adminsdk-wirl0@tutor-iren.iam.gserviceaccount.com",
  "client_id": "113816424473773641144",
  "auth_uri": "https://accounts.google.com/o/oauth2/auth",
  "token_uri": "https://oauth2.googleapis.com/token",
  "auth_provider_x509_cert_url": "https://www.googleapis.com/oauth2/v1/certs",
  "client_x509_cert_url": "https://www.googleapis.com/robot/v1/metadata/x509/firebase-adminsdk-wirl0%40tutor-iren.iam.gserviceaccount.com"
}
